…
``` r
sample_frac(diamonds, 0.01, replace = TRUE)
```

    ## # A tibble: 539 x 10
    ##    carat cut       color clarity depth table price     x     y     z
    ##    <dbl> <ord>     <ord> <ord>   <dbl> <dbl> <int> <dbl> <dbl> <dbl>
    ##  1  0.52 Premium   G     SI2      59.2    60  1121  5.29  5.21  3.11
    ##  2  1.13 Fair      I     VS2      55.9    67  4695  7.05  6.94  3.9 
    ##  3  0.35 Premium   E     SI2      61      58   630  4.56  4.52  2.77
    ##  4  1    Fair      E     SI1      65.8    59  4798  6.07  6.15  4.02
    ##  5  0.7  Good      F     SI2      61.6    61  2109  5.66  5.68  3.49
    ##  6  1.11 Premium   G     SI1      60.9    59  4096  6.69  6.64  4.07
    ##  7  1.1  Very Good E     SI2      60.9    60  4539  6.61  6.66  4.04
    ##  8  1.52 Premium   D     SI1      59.2    61 12823  7.59  7.55  4.48
    ##  9  0.31 Premium   G     VS2      59.2    60   544  4.42  4.47  2.63
    ## 10  1.6  Premium   F     SI2      61.8    57  6899  7.51  7.46  4.63
    ## # ... with 529 more rows

``` r
group_by(diamonds, clarity)
```

    ## # A tibble: 53,940 x 10
    ## # Groups:   clarity [8]
    ##    carat cut       color clarity depth table price     x     y     z
    ##    <dbl> <ord>     <ord> <ord>   <dbl> <dbl> <int> <dbl> <dbl> <dbl>
    ##  1  0.23 Ideal     E     SI2      61.5    55   326  3.95  3.98  2.43
    ##  2  0.21 Premium   E     SI1      59.8    61   326  3.89  3.84  2.31
    ##  3  0.23 Good      E     VS1      56.9    65   327  4.05  4.07  2.31
    ##  4  0.29 Premium   I     VS2      62.4    58   334  4.2   4.23  2.63
    ##  5  0.31 Good      J     SI2      63.3    58   335  4.34  4.35  2.75
    ##  6  0.24 Very Good J     VVS2     62.8    57   336  3.94  3.96  2.48
    ##  7  0.24 Very Good I     VVS1     62.3    57   336  3.95  3.98  2.47
    ##  8  0.26 Very Good H     SI1      61.9    55   337  4.07  4.11  2.53
    ##  9  0.22 Fair      E     VS2      65.1    61   337  3.87  3.78  2.49
    ## 10  0.23 Very Good H     VS1      59.4    61   338  4     4.05  2.39
    ## # ... with 53,930 more rows
…
