…
``` r
sample_frac(diamonds, 0.01, replace = TRUE)
```

    ## # A tibble: 539 x 10
    ##    carat cut       color clarity depth table price     x     y     z
    ##    <dbl> <ord>     <ord> <ord>   <dbl> <dbl> <int> <dbl> <dbl> <dbl>
    ##  1  1.15 Very Good H     SI2      63.2    58  4767  6.64  6.68  4.21
    ##  2  1.03 Ideal     F     VS2      62      57  6902  6.4   6.48  3.99
    ##  3  1.03 Premium   G     SI2      59.9    60  4413  6.56  6.5   3.91
    ##  4  0.38 Ideal     F     IF       62.2    54  1212  4.64  4.69  2.9 
    ##  5  0.3  Ideal     F     SI1      62.8    56   641  4.26  4.24  2.67
    ##  6  0.9  Ideal     F     SI2      61.8    56  4593  6.18  6.21  3.83
    ##  7  0.73 Premium   F     VS1      62.7    56  2961  5.75  5.73  3.6 
    ##  8  1.02 Very Good I     SI2      63.2    60  4155  6.37  6.41  4.04
    ##  9  2.11 Very Good I     SI2      63.8    54 12937  8.13  8.19  5.21
    ## 10  0.43 Good      D     SI1      63.4    55   774  4.78  4.84  3.05
    ## # ... with 529 more rows

``` r
group_by(diamonds, clarity)
```

    ## # A tibble: 53,940 x 10
    ## # Groups:   clarity [8]
    ##    carat cut       color clarity depth table price     x     y     z
    ##    <dbl> <ord>     <ord> <ord>   <dbl> <dbl> <int> <dbl> <dbl> <dbl>
    ##  1  0.23 Ideal     E     SI2      61.5    55   326  3.95  3.98  2.43
    ##  2  0.21 Premium   E     SI1      59.8    61   326  3.89  3.84  2.31
    ##  3  0.23 Good      E     VS1      56.9    65   327  4.05  4.07  2.31
    ##  4  0.29 Premium   I     VS2      62.4    58   334  4.2   4.23  2.63
    ##  5  0.31 Good      J     SI2      63.3    58   335  4.34  4.35  2.75
    ##  6  0.24 Very Good J     VVS2     62.8    57   336  3.94  3.96  2.48
    ##  7  0.24 Very Good I     VVS1     62.3    57   336  3.95  3.98  2.47
    ##  8  0.26 Very Good H     SI1      61.9    55   337  4.07  4.11  2.53
    ##  9  0.22 Fair      E     VS2      65.1    61   337  3.87  3.78  2.49
    ## 10  0.23 Very Good H     VS1      59.4    61   338  4     4.05  2.39
    ## # ... with 53,930 more rows
…
